^C:\USERS\MERESSE\SOURCE\REPOS\HOMEWORK_18\DEBUG\HOMEWORK_18.OBJ
C:\USERS\MERESSE\SOURCE\REPOS\HOMEWORK_18\DEBUG\HOMEWORK_17.EXE
C:\USERS\MERESSE\SOURCE\REPOS\HOMEWORK_18\DEBUG\HOMEWORK_17.ILK
C:\USERS\MERESSE\SOURCE\REPOS\HOMEWORK_18\DEBUG\HOMEWORK_17.PDB
